[
	{ "s": "O", "p": [95] },
	{ "s": "OBJECT", "p": [90, 12, 92, 96, 87, 84, 81] },
	{ "s": "OBJECTIVE", "p": [68, 70, 4] },
	{ "s": "OBJECTIVES", "p": [73, 70, 144, 4] },
	{ "s": "OBJECTS", "p": [92, 90, 145, 91, 87, 96, 83, 79, 77, 12] },
	{ "s": "OBLIGATIONS", "p": [4] },
	{ "s": "OBSERVATION", "p": [113, 140, 112, 87] },
	{ "s": "OBSERVATIONS", "p": [112, 113, 105, 140, 115] },
	{ "s": "OBSTRUCTIONS", "p": [87] },
	{ "s": "OBTAIN", "p": [127] },
	{ "s": "OBVIOUS", "p": [70] },
	{ "s": "OCCASIONS", "p": [109] },
	{ "s": "OCCUPANCY", "p": [60] },
	{ "s": "OCCUR", "p": [63, 62, 61, 145, 143, 70, 67, 60] },
	{ "s": "OCCURRED", "p": [55, 5] },
	{ "s": "OCCURRENCE", "p": [65, 73, 67] },
	{ "s": "OCCURRENCES", "p": [36, 22] },
	{ "s": "OCCURS", "p": [73] },
	{ "s": "OCTOBER", "p": [146] },
	{ "s": "ODD", "p": [145, 131] },
	{ "s": "OF", "p": [70, 87, 67, 144, 93, 143, 137, 73, 98, 139, 82, 65, 81, 5, 90, 136, 84, 68, 12, 37, 91, 60, 145, 135, 100, 76, 6, 4, 13, 127, 85, 124, 121, 96, 131, 92, 120, 63, 62, 61, 119, 36, 69, 59, 32, 116, 41, 140, 130, 129, 126, 125, 64, 34, 11, 146, 138, 123, 105, 101, 86, 66, 55, 44, 29, 128, 113, 95, 79, 77, 28, 20, 133, 118, 117, 111, 110, 109, 104, 83, 58, 57, 38, 22, 16, 8, 2, 142, 134, 112, 108, 106, 103, 89, 80, 75, 52, 35, 33, 26, 25, 21, 10, 141, 132, 122, 114, 102, 94, 88, 74, 71, 54, 50, 47, 46, 45, 43, 42, 30, 24, 23, 19, 17, 9, 1] },
	{ "s": "OFF", "p": [91, 96, 119, 60, 120, 98, 93, 84, 70] },
	{ "s": "OFF-SITE", "p": [60] },
	{ "s": "OFF-THE-SHELF", "p": [70] },
	{ "s": "OFFER", "p": [76] },
	{ "s": "OFFERED", "p": [143] },
	{ "s": "OFFERS", "p": [70, 4] },
	{ "s": "OFFICE", "p": [6, 143, 87, 67, 64] },
	{ "s": "OFFICIAL", "p": [6, 144, 81] },
	{ "s": "OFFSET", "p": [90, 98] },
	{ "s": "OFFSITE", "p": [60, 66, 63, 62, 61, 91, 65, 64] },
	{ "s": "OFTEN", "p": [87, 82, 145, 111, 91, 84, 81] },
	{ "s": "OIL", "p": [70, 81, 98] },
	{ "s": "OK", "p": [12, 45, 32, 22] },
	{ "s": "OKAY", "p": [121] },
	{ "s": "OLD", "p": [84, 81, 14] },
	{ "s": "OLDER", "p": [81, 70] },
	{ "s": "ON", "p": [70, 12, 91, 5, 87, 68, 143, 60, 145, 137, 93, 84, 144, 96, 90, 82, 81, 73, 135, 59, 136, 119, 98, 69, 121, 101, 100, 95, 92, 132, 120, 117, 116, 83, 124, 86, 79, 67, 37, 134, 130, 129, 126, 125, 104, 85, 76, 36, 34, 6, 4, 146, 142, 140, 139, 131, 113, 108, 72, 45, 28, 21, 138, 128, 123, 122, 118, 115, 109, 107, 106, 80, 75, 71, 63, 62, 61, 58, 57, 55, 31, 26, 22, 20, 18, 17, 14, 13, 10, 8, 7] },
	{ "s": "ON-DEMAND", "p": [87] },
	{ "s": "ON-SCREEN", "p": [139] },
	{ "s": "ON-SITE", "p": [60] },
	{ "s": "ONCE", "p": [12, 143, 84, 5, 145, 136, 118, 110, 92, 91, 90, 85, 82, 57, 36, 34, 33, 32, 23, 22, 17] },
	{ "s": "ONE", "p": [84, 82, 87, 98, 96, 91, 70, 68, 5, 139, 135, 120, 119, 116, 111, 37, 36, 4, 145, 144, 137, 136, 126, 121, 95, 93, 92, 90, 76, 67, 60, 59, 55, 34, 32, 26, 12] },
	{ "s": "ONES", "p": [135, 93, 77] },
	{ "s": "ONGOING", "p": [70] },
	{ "s": "ONLINE", "p": [146, 133, 118, 100, 87, 5] },
	{ "s": "ONLY", "p": [76, 98, 93, 92, 82, 70, 68, 145, 127, 123, 121, 116, 90, 81, 60, 59, 5, 139, 136, 131, 125, 124, 120, 119, 100, 91, 87, 86, 84, 69, 38, 37, 30, 25, 16, 13, 12, 11, 6, 4] },
	{ "s": "ONSITE", "p": [67, 60, 66, 63, 62, 61, 65, 64] },
	{ "s": "ONTO", "p": [85, 81, 86, 84, 145, 98, 90, 79] },
	{ "s": "OPACITY", "p": [90, 86, 85, 84, 82, 81] },
	{ "s": "OPAQUE", "p": [93, 87] },
	{ "s": "OPC", "p": [87] },
	{ "s": "OPEN", "p": [12, 41, 37, 10, 90, 81, 11, 98, 110, 105, 94, 84, 83, 79, 70, 56, 28, 17, 14, 145, 142, 135, 121, 111, 92, 91, 86, 85, 82, 67, 51, 50, 48, 32, 27, 20, 16] },
	{ "s": "OPENED", "p": [68, 128, 100, 37, 34] },
	{ "s": "OPENING", "p": [67] },
	{ "s": "OPENS", "p": [105, 19, 20, 92, 90, 89, 36, 132, 117, 116, 112, 110, 96, 93, 81, 80, 78, 72, 71, 55, 41, 30, 28, 14] },
	{ "s": "OPERABILITY", "p": [144] },
	{ "s": "OPERATE", "p": [67, 87, 70] },
	{ "s": "OPERATED", "p": [70] },
	{ "s": "OPERATING", "p": [67, 143, 87, 70, 81, 13] },
	{ "s": "OPERATION", "p": [47, 70, 67, 13, 143, 101] },
	{ "s": "OPERATIONAL", "p": [70, 87, 13] },
	{ "s": "OPERATIONS", "p": [93, 70, 13, 144, 68, 67, 60, 59, 5, 87, 73] },
	{ "s": "OPERATOR", "p": [143, 87, 67] },
	{ "s": "OPERATORS", "p": [70, 73] },
	{ "s": "OPPORTUNITIES", "p": [45] },
	{ "s": "OPPORTUNITY", "p": [5, 4] },
	{ "s": "OPTICAL", "p": [87] },
	{ "s": "OPTION", "p": [135, 11, 117, 76, 69, 116, 90, 12, 146, 145, 142, 137, 95, 92, 91, 89, 82, 81, 70, 59, 38, 36, 34, 32, 15, 14, 10, 9, 5] },
	{ "s": "OPTIONAL", "p": [93, 68, 60, 59, 82, 81, 70, 28, 12] },
	{ "s": "OPTIONS", "p": [96, 82, 81, 88, 25, 145, 89, 58, 5, 146, 119, 92, 86, 85, 84, 83, 79, 76, 72, 67, 37, 20, 13, 4] },
	{ "s": "OR", "p": [87, 70, 144, 143, 67, 6, 98, 93, 90, 5, 137, 60, 121, 81, 113, 91, 100, 105, 96, 82, 68, 12, 59, 25, 145, 84, 73, 37, 120, 116, 85, 76, 139, 136, 135, 117, 65, 36, 32, 13, 109, 55, 28, 4, 138, 119, 110, 92, 89, 83, 39, 29, 23, 8, 140, 124, 115, 114, 112, 106, 79, 77, 58, 56, 45, 30, 21, 20, 14, 11, 146, 142, 141, 131, 130, 129, 111, 108, 107, 99, 97, 95, 86, 69, 64, 49, 34, 26, 24] },
	{ "s": "ORANGE", "p": [79] },
	{ "s": "ORDER", "p": [144, 124, 91, 84, 145, 137, 136, 126, 121, 87, 75, 73, 67, 37, 32, 29] },
	{ "s": "ORDERED", "p": [138, 137, 139, 136, 36, 34] },
	{ "s": "ORDERING", "p": [70] },
	{ "s": "ORDINATE", "p": [93] },
	{ "s": "ORED", "p": [93] },
	{ "s": "ORGANIZATION", "p": [73, 70, 67, 13, 144, 6, 5, 22, 4, 145, 143, 135, 100, 98, 85, 81, 74, 64] },
	{ "s": "ORGANIZATION'S", "p": [100, 5] },
	{ "s": "ORGANIZATION-DEFINED", "p": [22] },
	{ "s": "ORGANIZATION-WIDE", "p": [73] },
	{ "s": "ORGANIZATIONAL", "p": [73, 144, 68, 60, 59, 67, 70, 13] },
	{ "s": "ORGANIZATIONS", "p": [70, 73, 98, 67, 13, 4] },
	{ "s": "ORGANIZATION’S", "p": [73, 70, 143, 98, 13, 5, 4] },
	{ "s": "ORGANIZED", "p": [70, 37, 137, 126, 125, 101, 73, 69] },
	{ "s": "ORGANS", "p": [87] },
	{ "s": "ORIENTATION", "p": [89] },
	{ "s": "ORIENTED", "p": [84] },
	{ "s": "ORIGINAL", "p": [90, 84, 32, 139, 127, 82, 70, 29] },
	{ "s": "ORIGINALLY", "p": [37] },
	{ "s": "ORTHOGONAL", "p": [82] },
	{ "s": "OTHER", "p": [87, 70, 143, 98, 73, 6, 145, 86, 124, 121, 92, 90, 85, 84, 82, 81, 67, 36, 22, 135, 120, 119, 109, 93, 91, 83, 79, 69, 35, 26, 13, 12, 8] },
	{ "s": "OTHERS", "p": [121, 109, 98, 91, 81, 70] },
	{ "s": "OTHERWISE", "p": [6, 144, 127, 18, 12] },
	{ "s": "OUR", "p": [12, 87, 84, 82, 70, 5, 4] },
	{ "s": "OUT", "p": [140, 95, 135, 98, 96, 68, 38, 33, 12, 6, 143, 105, 93, 92, 91, 90, 89, 82, 60, 59, 45, 34, 5] },
	{ "s": "OUTCOMES", "p": [73, 70] },
	{ "s": "OUTER", "p": [93] },
	{ "s": "OUTLINE", "p": [91, 96, 95, 84, 83] },
	{ "s": "OUTLINED", "p": [82] },
	{ "s": "OUTLINES", "p": [13] },
	{ "s": "OUTPUT", "p": [87, 80, 24, 11] },
	{ "s": "OUTSIDE", "p": [143, 93, 67, 25, 20, 145, 98, 91, 83, 76, 73, 6] },
	{ "s": "OUTSIDER", "p": [143] },
	{ "s": "OUTSIDERS", "p": [143] },
	{ "s": "OVER", "p": [87, 84, 70, 12, 97, 82, 33, 145, 126, 125, 121, 119, 117, 116, 114, 112, 110, 109, 91, 73, 67, 32] },
	{ "s": "OVERALL", "p": [68, 60, 59, 34, 127, 120, 144, 136, 119, 81, 33, 5, 4, 146, 128, 123, 121, 77, 70] },
	{ "s": "OVERLAP", "p": [76, 32] },
	{ "s": "OVERLAY", "p": [146, 70] },
	{ "s": "OVERLAYS", "p": [70] },
	{ "s": "OVERRIDDEN", "p": [117] },
	{ "s": "OVERRIDE", "p": [117, 116, 128] },
	{ "s": "OVERRIDES", "p": [117, 145, 116, 5] },
	{ "s": "OVERRIDING", "p": [116, 117] },
	{ "s": "OVERVIEW", "p": [134, 5, 143, 135, 37, 139, 51] },
	{ "s": "OVERWHELMS", "p": [143] },
	{ "s": "OVERWRITE", "p": [68] },
	{ "s": "OVERWRITTEN", "p": [68] },
	{ "s": "OWN", "p": [87, 82, 70, 32, 25, 12] },
	{ "s": "OWNED", "p": [67, 64] },
	{ "s": "OWNER", "p": [85, 144, 139, 56] },
	{ "s": "OWNER'S", "p": [56] },
	{ "s": "OWNERS", "p": [73, 70, 5, 4] },
	{ "s": "OXIDE", "p": [87] },
	{ "s": "OXYGEN", "p": [87] }
]