[
	{ "s": "R", "p": [95] },
	{ "s": "R4", "p": [22] },
	{ "s": "R5", "p": [146] },
	{ "s": "RADIATION", "p": [87] },
	{ "s": "RADIO", "p": [87, 12, 146, 144, 81] },
	{ "s": "RADIOGRAPHIC", "p": [87] },
	{ "s": "RADIOS", "p": [87] },
	{ "s": "RAIL", "p": [70] },
	{ "s": "RAILWAY", "p": [98] },
	{ "s": "RAISE", "p": [70] },
	{ "s": "RAM", "p": [145, 8] },
	{ "s": "RANGE", "p": [143, 66, 65, 64, 63, 62, 61, 98, 73, 70, 5] },
	{ "s": "RANGED", "p": [33] },
	{ "s": "RANGES", "p": [144] },
	{ "s": "RANGING", "p": [70, 67] },
	{ "s": "RANK", "p": [137, 124, 121, 135] },
	{ "s": "RANKED", "p": [127, 124, 137, 129, 120, 138, 135, 121, 136, 122, 5] },
	{ "s": "RANKING", "p": [137, 135, 121, 5, 138, 136] },
	{ "s": "RANKINGS", "p": [127, 135, 124, 5] },
	{ "s": "RANKS", "p": [36] },
	{ "s": "RARE", "p": [109] },
	{ "s": "RAS", "p": [87] },
	{ "s": "RATHER", "p": [87, 85, 72, 55, 37, 32, 4] },
	{ "s": "RATING", "p": [144, 68, 67, 60, 59, 13] },
	{ "s": "RATIO", "p": [93, 84] },
	{ "s": "RAW", "p": [142, 98, 87] },
	{ "s": "RAY", "p": [87] },
	{ "s": "RAYS", "p": [87] },
	{ "s": "RBPS", "p": [70, 144] },
	{ "s": "RDSUID", "p": [146] },
	{ "s": "RE", "p": [70, 93, 90, 87, 12] },
	{ "s": "RE-ADDED", "p": [90] },
	{ "s": "RE-DESIGNATES", "p": [70] },
	{ "s": "RE-OPEN", "p": [12] },
	{ "s": "RE-ORDERING", "p": [70] },
	{ "s": "REACHING", "p": [67] },
	{ "s": "REACTIONS", "p": [60, 63, 62, 61] },
	{ "s": "REACTIVE", "p": [73] },
	{ "s": "REACTORS", "p": [70] },
	{ "s": "READ", "p": [37, 100, 86, 10, 137, 126, 101, 90, 87, 78, 76] },
	{ "s": "READ-ONLY", "p": [90, 86] },
	{ "s": "READABILITY", "p": [28] },
	{ "s": "READABLE", "p": [108] },
	{ "s": "READER", "p": [87, 139] },
	{ "s": "READER'S", "p": [87] },
	{ "s": "READY", "p": [10, 143, 53, 25] },
	{ "s": "REAL", "p": [87, 90, 146, 143, 113] },
	{ "s": "REAL-TIME", "p": [87, 90] },
	{ "s": "REALIZE", "p": [67] },
	{ "s": "REASONABLE", "p": [144, 70] },
	{ "s": "REASONS", "p": [109, 87, 144] },
	{ "s": "REBUILT", "p": [67] },
	{ "s": "RECEIVE", "p": [87, 12] },
	{ "s": "RECEIVERS", "p": [87] },
	{ "s": "RECEIVES", "p": [73, 70] },
	{ "s": "RECEIVING", "p": [135, 87] },
	{ "s": "RECENT", "p": [70] },
	{ "s": "RECENTLY", "p": [87] },
	{ "s": "RECIPIENT", "p": [70, 6] },
	{ "s": "RECIPROCAL", "p": [70] },
	{ "s": "RECOGNITION", "p": [73] },
	{ "s": "RECOGNIZE", "p": [100] },
	{ "s": "RECOGNIZED", "p": [98] },
	{ "s": "RECOGNIZING", "p": [73] },
	{ "s": "RECOMMEND", "p": [57, 12] },
	{ "s": "RECOMMENDATION", "p": [111, 6] },
	{ "s": "RECOMMENDATIONS", "p": [70, 113, 37, 4, 145, 137, 135, 144, 111, 77, 67, 7] },
	{ "s": "RECOMMENDED", "p": [70, 8, 36, 98, 135, 121, 76, 73, 145, 136, 103, 102, 100, 85, 69, 32, 25, 4] },
	{ "s": "RECONFIGURATION", "p": [143] },
	{ "s": "RECORD", "p": [113, 135, 109, 105, 70] },
	{ "s": "RECORDED", "p": [140] },
	{ "s": "RECORDERS", "p": [87] },
	{ "s": "RECORDING", "p": [87] },
	{ "s": "RECORDS", "p": [140, 113, 70] },
	{ "s": "RECOVER", "p": [73] },
	{ "s": "RECOVERY", "p": [70, 5] },
	{ "s": "RECREATED", "p": [137] },
	{ "s": "RECT", "p": [93] },
	{ "s": "RECTANGLE", "p": [82, 91, 95, 85] },
	{ "s": "RECTANGLES", "p": [82] },
	{ "s": "RECTIFYING", "p": [113] },
	{ "s": "RECURSIVE", "p": [95] },
	{ "s": "RED", "p": [97, 132, 90, 145, 136, 114, 112, 110, 109, 100, 82, 25] },
	{ "s": "REDESIGN", "p": [146] },
	{ "s": "REDESIGNED", "p": [146] },
	{ "s": "REDIRECTION", "p": [12] },
	{ "s": "REDO", "p": [90, 96, 95, 79] },
	{ "s": "REDUCE", "p": [4] },
	{ "s": "REDUCED", "p": [144] },
	{ "s": "REDUCING", "p": [73, 4] },
	{ "s": "REDUCTION", "p": [98, 70] },
	{ "s": "REDUNDANT", "p": [91] },
	{ "s": "REFER", "p": [81] },
	{ "s": "REFERENCE", "p": [28, 104, 87, 70, 30, 25, 5, 144, 120, 116, 105, 100, 82, 81, 13, 6] },
	{ "s": "REFERENCED", "p": [105, 70, 5] },
	{ "s": "REFERENCES", "p": [111, 105, 73, 28, 70, 37, 45, 25] },
	{ "s": "REFERENCING", "p": [93] },
	{ "s": "REFERRED", "p": [143, 111, 98, 87, 82, 70] },
	{ "s": "REFERRING", "p": [5] },
	{ "s": "REFERS", "p": [87, 98, 97] },
	{ "s": "REFINE", "p": [36] },
	{ "s": "REFLECT", "p": [100, 87, 70, 32, 12] },
	{ "s": "REFLECTED", "p": [72] },
	{ "s": "REFLECTION", "p": [87] },
	{ "s": "REFLECTIVE", "p": [139] },
	{ "s": "REFLECTS", "p": [144, 73] },
	{ "s": "REFRESH", "p": [95, 17] },
	{ "s": "REGARDED", "p": [87] },
	{ "s": "REGARDING", "p": [114, 73, 45, 6] },
	{ "s": "REGARDLESS", "p": [131, 76] },
	{ "s": "REGARDS", "p": [11] },
	{ "s": "REGION", "p": [55] },
	{ "s": "REGISTER", "p": [14, 5, 12, 142] },
	{ "s": "REGISTERED", "p": [14, 56] },
	{ "s": "REGISTERING", "p": [5] },
	{ "s": "REGISTRATION", "p": [56, 14] },
	{ "s": "REGISTRY", "p": [70] },
	{ "s": "REGULAR", "p": [90, 98, 84, 67] },
	{ "s": "REGULARLY", "p": [98, 73] },
	{ "s": "REGULATED", "p": [103, 76, 75] },
	{ "s": "REGULATION", "p": [70, 144] },
	{ "s": "REGULATIONS", "p": [70, 4, 144, 98, 5] },
	{ "s": "REGULATORY", "p": [146, 70, 144, 73, 67] },
	{ "s": "REISSUES", "p": [90] },
	{ "s": "RELATED", "p": [139, 110, 113, 107, 144, 128, 123, 111, 106, 105, 104, 70, 36, 29, 143, 137, 126, 125, 119, 116, 112, 109, 101, 99, 97, 96, 89, 81, 74, 35, 28, 20, 13, 5] },
	{ "s": "RELATES", "p": [121, 117, 116, 70, 67] },
	{ "s": "RELATING", "p": [82, 5] },
	{ "s": "RELATION", "p": [144, 73] },
	{ "s": "RELATIONAL", "p": [87] },
	{ "s": "RELATIVE", "p": [144, 121, 96, 81, 57, 135, 93, 92, 91, 84] },
	{ "s": "RELATIVELY", "p": [137] },
	{ "s": "RELAY", "p": [87] },
	{ "s": "RELEASE", "p": [146, 67, 60, 145, 82, 70, 63, 62, 61, 144, 84, 83, 23] },
	{ "s": "RELEASED", "p": [70, 84, 87, 86] },
	{ "s": "RELEASES", "p": [145, 77, 12] },
	{ "s": "RELEASING", "p": [84] },
	{ "s": "RELEVANT", "p": [57, 70, 139, 134, 100, 29, 5, 4] },
	{ "s": "RELIABILITY", "p": [144, 70] },
	{ "s": "RELIABLE", "p": [144, 87, 70] },
	{ "s": "RELIANCE", "p": [6] },
	{ "s": "RELY", "p": [143] },
	{ "s": "REMAIN", "p": [145, 90, 82] },
	{ "s": "REMAINS", "p": [84, 37] },
	{ "s": "REMEDIATION", "p": [67, 66] },
	{ "s": "REMEMBER", "p": [131, 117, 90, 89, 67, 12] },
	{ "s": "REMEMBERED", "p": [81] },
	{ "s": "REMOTE", "p": [87, 143, 144, 91] },
	{ "s": "REMOTE-CONTROL", "p": [143] },
	{ "s": "REMOTELY", "p": [87] },
	{ "s": "REMOVABLE", "p": [70] },
	{ "s": "REMOVAL", "p": [90, 37] },
	{ "s": "REMOVE", "p": [110, 92, 90, 91, 82, 56, 145, 81, 25] },
	{ "s": "REMOVED", "p": [90, 96, 87, 82] },
	{ "s": "REMOVING", "p": [100, 56] },
	{ "s": "RENDER", "p": [93, 28] },
	{ "s": "RENDERED", "p": [93, 144, 29] },
	{ "s": "RENDERING", "p": [93] },
	{ "s": "RENTALS", "p": [66] },
	{ "s": "RENTED", "p": [67, 65] },
	{ "s": "REORDER", "p": [91] },
	{ "s": "REORDERED", "p": [91] },
	{ "s": "REPEAT", "p": [93] },
	{ "s": "REPEATABLE", "p": [73, 70, 4] },
	{ "s": "REPEATED", "p": [139, 138, 108] },
	{ "s": "REPEATEDLY", "p": [87] },
	{ "s": "REPLACE", "p": [84, 22, 139, 134, 86, 67, 12] },
	{ "s": "REPLACED", "p": [136, 139, 93, 81] },
	{ "s": "REPLACEMENT", "p": [67, 64, 60] },
	{ "s": "REPLACES", "p": [95] },
	{ "s": "REPLICATES", "p": [98] },
	{ "s": "REPLICATION", "p": [143] },
	{ "s": "REPORT", "p": [135, 137, 136, 138, 6, 140, 32, 139, 146, 144, 34, 33, 24, 5, 134, 80, 70, 45] },
	{ "s": "REPORTED", "p": [136] },
	{ "s": "REPORTING", "p": [133, 70] },
	{ "s": "REPORTS", "p": [5, 133, 136, 118, 6, 144, 140, 138, 134, 100, 97, 91, 86, 82, 81, 67, 55, 51, 35, 8] },
	{ "s": "REPOSITORY", "p": [144, 4] },
	{ "s": "REPRESENT", "p": [87, 86, 85, 5] },
	{ "s": "REPRESENTATION", "p": [87, 85, 5] },
	{ "s": "REPRESENTATIONS", "p": [87] },
	{ "s": "REPRESENTATIVE", "p": [45] },
	{ "s": "REPRESENTATIVES", "p": [13, 4] },
	{ "s": "REPRESENTED", "p": [96, 82] },
	{ "s": "REPRESENTING", "p": [87, 37] },
	{ "s": "REPRESENTS", "p": [87, 144, 137, 120, 119, 73] },
	{ "s": "REPRODUCED", "p": [6] },
	{ "s": "REPROGRAMMING", "p": [67] },
	{ "s": "REPUDIATION", "p": [144] },
	{ "s": "REPUTATION", "p": [67, 65] },
	{ "s": "REQ", "p": [28] },
	{ "s": "REQ.1", "p": [28] },
	{ "s": "REQUEST", "p": [6, 45] },
	{ "s": "REQUIRE", "p": [67, 12, 144, 62, 139, 98, 87, 59] },
	{ "s": "REQUIRED", "p": [93, 70, 139, 12, 5, 121, 87, 81, 69, 58, 55, 28, 14, 13, 8] },
	{ "s": "REQUIREMENT", "p": [28, 105, 137, 139, 107, 106, 29, 22, 121, 104, 103, 76, 113, 110, 109, 100, 70, 30, 146, 136, 112, 111, 108, 101, 75, 37, 114, 102, 27, 5] },
	{ "s": "REQUIREMENTS", "p": [70, 76, 103, 73, 28, 107, 139, 120, 8, 101, 75, 5, 135, 69, 144, 106, 105, 100, 37, 25, 20, 146, 136, 121, 102, 29, 27, 26, 4, 145, 137, 114, 108, 68, 50, 32, 30, 24, 7] },
	{ "s": "REQUIREMENTS-BASED", "p": [76, 75] },
	{ "s": "REQUIRES", "p": [70, 55, 34, 12, 5] },
	{ "s": "REQUIRING", "p": [67] },
	{ "s": "RESET", "p": [95, 91, 14] },
	{ "s": "RESETTING", "p": [14] },
	{ "s": "RESIDE", "p": [106, 98] },
	{ "s": "RESIDENT", "p": [70] },
	{ "s": "RESIDENTIAL", "p": [67] },
	{ "s": "RESIDES", "p": [70] },
	{ "s": "RESILIENCE", "p": [73, 70] },
	{ "s": "RESILIENT", "p": [70] },
	{ "s": "RESISTANT", "p": [70] },
	{ "s": "RESIZE", "p": [95, 84, 86, 85, 83, 81] },
	{ "s": "RESIZED", "p": [86] },
	{ "s": "RESIZING", "p": [93, 86] },
	{ "s": "RESOLUTION", "p": [113, 140] },
	{ "s": "RESOLVE", "p": [35] },
	{ "s": "RESOLVED", "p": [121, 113] },
	{ "s": "RESOLVING", "p": [113] },
	{ "s": "RESONANCE", "p": [87] },
	{ "s": "RESONATOR", "p": [87] },
	{ "s": "RESOURCE", "p": [35, 36, 19, 5, 37, 146, 144, 135, 87] },
	{ "s": "RESOURCES", "p": [105, 70, 143, 98, 73, 137, 135, 121, 85, 81, 67, 12, 5] },
	{ "s": "RESPECTIVE", "p": [138, 92, 81, 4] },
	{ "s": "RESPECTIVELY", "p": [84] },
	{ "s": "RESPIRATORY", "p": [87] },
	{ "s": "RESPOND", "p": [73] },
	{ "s": "RESPONDING", "p": [98] },
	{ "s": "RESPONDS", "p": [73, 70] },
	{ "s": "RESPONSE", "p": [73, 13, 144, 121, 100, 87, 70, 67, 65] },
	{ "s": "RESPONSES", "p": [130, 129, 144] },
	{ "s": "RESPONSIBILITIES", "p": [139, 73, 70, 13] },
	{ "s": "RESPONSIBILITY", "p": [70, 13, 4] },
	{ "s": "RESPONSIBLE", "p": [113, 70, 5, 140, 137, 135, 87, 85, 55] },
	{ "s": "RESPONSIVENESS", "p": [146] },
	{ "s": "REST", "p": [87, 70, 37] },
	{ "s": "RESTART", "p": [67] },
	{ "s": "RESTARTS", "p": [5] },
	{ "s": "RESTORE", "p": [93, 86, 73] },
	{ "s": "RESTRICTED", "p": [98] },
	{ "s": "RESTRICTIONS", "p": [144, 143, 100] },
	{ "s": "RESULT", "p": [144, 67, 32, 143, 76] },
	{ "s": "RESULTING", "p": [143, 118, 92, 87, 76, 67, 29, 6] },
	{ "s": "RESULTS", "p": [51, 126, 125, 118, 36, 5, 130, 32, 139, 133, 119, 115, 34, 146, 144, 142, 137, 136, 128, 123, 122, 114, 104, 100, 82, 75, 73, 70, 68, 67, 52, 47, 33, 24, 6] },
	{ "s": "RESUMED", "p": [67] },
	{ "s": "RESUMING", "p": [67] },
	{ "s": "RETURN", "p": [36, 142, 92, 80, 38, 20] },
	{ "s": "RETURNED", "p": [142, 82, 38, 36] },
	{ "s": "RETURNING", "p": [92] },
	{ "s": "REV", "p": [70, 146] },
	{ "s": "REVEAL", "p": [87, 73] },
	{ "s": "REVERSE", "p": [96, 92, 90, 82] },
	{ "s": "REVERSES", "p": [91, 90] },
	{ "s": "REVERTED", "p": [82] },
	{ "s": "REVERTS", "p": [91] },
	{ "s": "REVIEW", "p": [105, 138, 137, 118, 144, 143, 140, 139, 120, 119, 115, 109, 98, 97, 66, 65, 64, 63, 62, 61, 32, 20] },
	{ "s": "REVIEWED", "p": [144, 137, 110, 97, 73, 5] },
	{ "s": "REVIEWING", "p": [145] },
	{ "s": "REVISED", "p": [146] },
	{ "s": "REVISING", "p": [70] },
	{ "s": "REVISION", "p": [70, 146] },
	{ "s": "REWORKED", "p": [67] },
	{ "s": "REWORKING", "p": [67] },
	{ "s": "REWRITE", "p": [12] },
	{ "s": "REWRITING", "p": [67] },
	{ "s": "RF", "p": [87] },
	{ "s": "RFID", "p": [87] },
	{ "s": "RG", "p": [144, 70] },
	{ "s": "RIBBON", "p": [79, 11, 10] },
	{ "s": "RIGHT", "p": [12, 82, 92, 91, 95, 93, 86, 84, 85, 83, 81, 80, 79, 68, 37, 34] },
	{ "s": "RIGHT-CLICK", "p": [12, 82] },
	{ "s": "RIGHT-HAND", "p": [92, 82, 37] },
	{ "s": "RIGHT-SIDE", "p": [86, 91, 85, 84, 83, 82] },
	{ "s": "RIGHTS", "p": [6] },
	{ "s": "RIGOR", "p": [58] },
	{ "s": "RIGOROUS", "p": [81] },
	{ "s": "RING", "p": [87] },
	{ "s": "RISE", "p": [98] },
	{ "s": "RISK", "p": [73, 70, 127, 13, 4, 67, 144, 146, 139, 137, 85, 74, 72, 68, 60, 59, 34] },
	{ "s": "RISK-BASED", "p": [70, 73, 144, 72, 68, 60, 59] },
	{ "s": "RISK-INFORMED", "p": [73] },
	{ "s": "RISKS", "p": [70, 143] },
	{ "s": "RIVERS", "p": [67] },
	{ "s": "RMF", "p": [70] },
	{ "s": "ROADMAP", "p": [73, 70] },
	{ "s": "ROADS", "p": [64] },
	{ "s": "ROADWAYS", "p": [60] },
	{ "s": "ROBUST", "p": [137] },
	{ "s": "ROLE", "p": [12, 73, 56] },
	{ "s": "ROLE-BASED", "p": [12] },
	{ "s": "ROLES", "p": [12, 139, 73] },
	{ "s": "ROOM", "p": [100] },
	{ "s": "ROOMS", "p": [87, 85] },
	{ "s": "ROTATE", "p": [84, 92, 81, 95, 93, 86, 85, 83, 82] },
	{ "s": "ROTATED", "p": [82, 93, 84] },
	{ "s": "ROTATING", "p": [84, 92] },
	{ "s": "ROTATION", "p": [93, 92, 84] },
	{ "s": "ROUGH", "p": [57] },
	{ "s": "ROUND", "p": [76] },
	{ "s": "ROUNDED", "p": [86, 85, 84] },
	{ "s": "ROUNDRECT", "p": [93] },
	{ "s": "ROUTER", "p": [87, 144] },
	{ "s": "ROUTERS", "p": [143, 70] },
	{ "s": "ROUTING", "p": [87] },
	{ "s": "ROW", "p": [130, 129] },
	{ "s": "RTF", "p": [146] },
	{ "s": "RTLS", "p": [87] },
	{ "s": "RTU", "p": [87] },
	{ "s": "RUBBERBAND", "p": [95] },
	{ "s": "RULE", "p": [98, 12, 146, 70] },
	{ "s": "RULES", "p": [98, 142, 116, 12] },
	{ "s": "RUN", "p": [143, 12, 145, 67, 11] },
	{ "s": "RUNNING", "p": [12, 143, 11, 145, 98, 87, 17] },
	{ "s": "RUNS", "p": [143] },
	{ "s": "RUNTIME", "p": [8] }
]