[
	{ "s": "L", "p": [95, 90, 137, 70] },
	{ "s": "LABEL", "p": [81, 100, 95, 85, 145, 130, 129, 93, 91, 90, 87, 86, 84, 83, 82] },
	{ "s": "LABELED", "p": [37, 116, 90, 86, 81, 38] },
	{ "s": "LABELS", "p": [95, 90, 140, 137, 119, 87, 81] },
	{ "s": "LABOR", "p": [66, 67] },
	{ "s": "LABORATORIES", "p": [70, 37] },
	{ "s": "LAND", "p": [64, 87, 65] },
	{ "s": "LANDING", "p": [54, 38, 19, 17, 10, 20, 18, 16, 11, 5] },
	{ "s": "LANDSCAPE", "p": [73] },
	{ "s": "LANE", "p": [86, 85] },
	{ "s": "LANGUAGE", "p": [37, 100, 102, 76, 25] },
	{ "s": "LAPTOP", "p": [87] },
	{ "s": "LARGE", "p": [69, 145, 144, 116, 93, 91, 87, 70, 67, 37] },
	{ "s": "LARGELY", "p": [70] },
	{ "s": "LARGER", "p": [73] },
	{ "s": "LARGEST", "p": [34] },
	{ "s": "LAST", "p": [137, 96, 39, 136, 93, 81, 56, 45, 36, 34, 14] },
	{ "s": "LATER", "p": [117, 116, 70, 5] },
	{ "s": "LATEST", "p": [70, 81, 8, 5] },
	{ "s": "LAUNCH", "p": [143, 10, 5] },
	{ "s": "LAW", "p": [70, 67, 6] },
	{ "s": "LAWSUITS", "p": [65, 67] },
	{ "s": "LAYER", "p": [91, 145, 87, 83] },
	{ "s": "LAYERED", "p": [70] },
	{ "s": "LAYERING", "p": [146] },
	{ "s": "LAYERS", "p": [91, 90, 145, 96, 95, 87, 5] },
	{ "s": "LAYING", "p": [82] },
	{ "s": "LAYOUT", "p": [92, 79, 96, 81] },
	{ "s": "LEADERSHIP", "p": [70] },
	{ "s": "LEADING", "p": [70, 28] },
	{ "s": "LEAF", "p": [37] },
	{ "s": "LEARN", "p": [87, 78, 58, 45, 38, 29, 28, 15, 9] },
	{ "s": "LEARNED", "p": [73] },
	{ "s": "LEARNING", "p": [98, 87] },
	{ "s": "LEASED", "p": [82] },
	{ "s": "LEAST", "p": [22, 139, 111, 87, 85, 34, 33, 32] },
	{ "s": "LEAVE", "p": [105, 29, 12] },
	{ "s": "LEAVES", "p": [37] },
	{ "s": "LEFT", "p": [12, 92, 93, 84, 91, 34, 137, 121, 96, 86, 82, 81, 79, 68] },
	{ "s": "LEFT-SIDE", "p": [96] },
	{ "s": "LEGACY", "p": [17, 16] },
	{ "s": "LEGAL", "p": [73, 60] },
	{ "s": "LEGAL/REGULATORY", "p": [73] },
	{ "s": "LEGALITIES", "p": [137] },
	{ "s": "LEGEND", "p": [120, 119, 83] },
	{ "s": "LENGTH", "p": [130, 129] },
	{ "s": "LENGTHS", "p": [93] },
	{ "s": "LESS", "p": [98, 93, 121, 81, 70] },
	{ "s": "LESSER", "p": [81] },
	{ "s": "LESSONS", "p": [73] },
	{ "s": "LETS", "p": [91] },
	{ "s": "LETTER", "p": [139, 137] },
	{ "s": "LETTER-SIZED", "p": [139, 137] },
	{ "s": "LEVEL", "p": [68, 59, 144, 135, 73, 58, 137, 121, 70, 139, 136, 106, 85, 81, 28, 5, 134, 104, 100, 98, 60, 146, 138, 131, 113, 99, 93, 91, 74, 72, 67, 50, 37, 29, 19] },
	{ "s": "LEVELS", "p": [68, 59, 143, 71, 137, 70, 60, 5, 29, 28, 145, 144, 81, 73, 72, 48, 37, 34] },
	{ "s": "LEVERAGES", "p": [143] },
	{ "s": "LIABLE", "p": [6] },
	{ "s": "LIBRARIES", "p": [91] },
	{ "s": "LIBRARY", "p": [35, 36, 5, 37, 19, 146, 137, 144, 138] },
	{ "s": "LICENSE", "p": [10] },
	{ "s": "LICENSED", "p": [67] },
	{ "s": "LICENSEE", "p": [70] },
	{ "s": "LICENSEES", "p": [70] },
	{ "s": "LICENSING", "p": [12] },
	{ "s": "LIFE", "p": [144, 67, 70] },
	{ "s": "LIFE-SAFETY", "p": [70] },
	{ "s": "LIFETIME", "p": [87] },
	{ "s": "LIGHT", "p": [87, 100] },
	{ "s": "LIGHTING", "p": [87] },
	{ "s": "LIKE", "p": [86, 98, 84, 137, 87, 83, 145, 136, 121, 120, 115, 100, 90, 85, 81, 76, 37, 36, 20, 17, 5] },
	{ "s": "LIKELY", "p": [67, 143] },
	{ "s": "LIMIT", "p": [115, 98, 70, 36, 5] },
	{ "s": "LIMITATIONS", "p": [137, 90, 37, 4] },
	{ "s": "LIMITED", "p": [143, 136, 70, 144, 135, 87, 76, 92, 85, 81, 73, 68, 60, 59, 6, 4] },
	{ "s": "LIMITS", "p": [121] },
	{ "s": "LINE", "p": [82, 145, 96, 93, 95, 87, 146, 142, 98, 97, 90, 86, 85, 84, 83, 81, 28] },
	{ "s": "LINEAR", "p": [87] },
	{ "s": "LINECAP", "p": [93] },
	{ "s": "LINEJOIN", "p": [93] },
	{ "s": "LINES", "p": [82, 96, 87, 84, 12, 145, 91] },
	{ "s": "LINK", "p": [90, 14, 98, 96, 82, 72, 71, 5, 116, 94, 87, 68, 38, 12, 145, 144, 135, 117, 95, 91, 40, 24] },
	{ "s": "LINKED", "p": [137, 130, 129, 121, 82, 4] },
	{ "s": "LINKS", "p": [90, 91, 82, 12, 143, 119, 84, 45, 111, 98, 92, 87, 86, 85, 81, 80, 68, 41, 28] },
	{ "s": "LINUX", "p": [95] },
	{ "s": "LINUX/MAC", "p": [95] },
	{ "s": "LIQUEFIED", "p": [70] },
	{ "s": "LIQUID", "p": [70, 87] },
	{ "s": "LIQUIDS", "p": [70] },
	{ "s": "LIST", "p": [139, 36, 137, 57, 30, 25, 135, 91, 69, 28, 12, 136, 121, 81, 37, 23, 140, 124, 116, 110, 67, 26, 22, 138, 113, 96, 87, 80, 70, 29, 5, 146, 145, 144, 132, 117, 114, 112, 111, 109, 100, 94, 90, 85, 77, 74, 68, 50, 41, 32, 27, 20, 13] },
	{ "s": "LISTED", "p": [137, 70, 130, 129, 37, 28, 136, 131, 116, 86, 73, 34, 12] },
	{ "s": "LISTING", "p": [28, 136, 135, 27] },
	{ "s": "LISTS", "p": [5, 136, 32, 139, 137, 133, 80, 73, 30] },
	{ "s": "LITTLE", "p": [143, 98, 85, 32] },
	{ "s": "LITTLE-USED", "p": [143] },
	{ "s": "LIVESTOCK", "p": [64] },
	{ "s": "LL", "p": [85, 84, 83, 82, 12] },
	{ "s": "LOAD", "p": [105, 87, 32, 25, 142, 93, 89, 81] },
	{ "s": "LOADED", "p": [32, 33, 25] },
	{ "s": "LOADING", "p": [145] },
	{ "s": "LOADS", "p": [143] },
	{ "s": "LOCAL", "p": [11, 87, 10, 8, 91, 70, 38, 17, 12, 5] },
	{ "s": "LOCALDB", "p": [8] },
	{ "s": "LOCALHOST", "p": [12, 13] },
	{ "s": "LOCALIZED", "p": [93] },
	{ "s": "LOCALLY", "p": [87, 17, 5] },
	{ "s": "LOCATE", "p": [12, 121, 89, 30] },
	{ "s": "LOCATED", "p": [91, 84, 100, 87, 85, 83, 45] },
	{ "s": "LOCATES", "p": [143] },
	{ "s": "LOCATING", "p": [87] },
	{ "s": "LOCATION", "p": [87, 110, 93, 90, 67, 65, 55, 28, 12] },
	{ "s": "LOCATIONS", "p": [98, 97, 91, 87, 82, 5] },
	{ "s": "LOCATOR", "p": [144] },
	{ "s": "LOCK", "p": [90, 95] },
	{ "s": "LOCK/UNLOCK", "p": [95, 90] },
	{ "s": "LOCKED", "p": [100] },
	{ "s": "LOCKS", "p": [100] },
	{ "s": "LOG", "p": [38, 11] },
	{ "s": "LOGGED", "p": [38, 12] },
	{ "s": "LOGGING", "p": [54] },
	{ "s": "LOGIC", "p": [144, 87, 70, 65] },
	{ "s": "LOGICAL", "p": [70, 87, 85, 81] },
	{ "s": "LOGIN", "p": [14, 12, 142, 143, 5] },
	{ "s": "LOGO", "p": [96, 90] },
	{ "s": "LOGOUT", "p": [38] },
	{ "s": "LONG", "p": [87, 108] },
	{ "s": "LONGER", "p": [124, 90, 84, 82, 76] },
	{ "s": "LOOK", "p": [120, 65, 36, 136, 127, 87, 76, 20] },
	{ "s": "LOOKING", "p": [37] },
	{ "s": "LOOKS", "p": [82, 32] },
	{ "s": "LOOKUPS", "p": [87] },
	{ "s": "LOOP", "p": [87] },
	{ "s": "LOOSELY", "p": [143] },
	{ "s": "LOSE", "p": [70] },
	{ "s": "LOSS", "p": [67, 144, 65, 143, 68, 60, 59] },
	{ "s": "LOSS-OF-LIFE", "p": [67] },
	{ "s": "LOSSES", "p": [67] },
	{ "s": "LOST", "p": [145, 89, 67] },
	{ "s": "LOW", "p": [68, 144, 121, 70, 60, 59, 98, 81, 145, 139, 137, 135, 131, 113, 106, 85, 72, 71, 32] },
	{ "s": "LOW-LEVEL", "p": [70] },
	{ "s": "LOWER", "p": [98, 143, 137, 136, 121, 106] },
	{ "s": "LOWER-SPEED", "p": [143] },
	{ "s": "LOWERED", "p": [98] },
	{ "s": "LOWEST", "p": [92, 70] }
]