[
	{ "s": "G", "p": [143, 95, 92, 12, 144, 98, 90, 67, 6] },
	{ "s": "G/CMD", "p": [92] },
	{ "s": "GAIN", "p": [143] },
	{ "s": "GAINED", "p": [143, 73] },
	{ "s": "GAINING", "p": [143] },
	{ "s": "GAP", "p": [100] },
	{ "s": "GAPS", "p": [73] },
	{ "s": "GAS", "p": [70, 87, 81, 144, 98] },
	{ "s": "GASEOUS", "p": [87] },
	{ "s": "GASES", "p": [70] },
	{ "s": "GATEWAY", "p": [98] },
	{ "s": "GATHER", "p": [13] },
	{ "s": "GATHERED", "p": [13, 5] },
	{ "s": "GB", "p": [8, 145] },
	{ "s": "GEAR", "p": [145] },
	{ "s": "GEARED", "p": [70] },
	{ "s": "GENERAL", "p": [60, 67, 66, 65, 64, 63, 62, 61, 137, 87, 70, 144, 98, 85, 83, 79, 76, 75, 37, 23, 20, 13, 5] },
	{ "s": "GENERALLY", "p": [93, 139, 119, 102] },
	{ "s": "GENERATE", "p": [135, 12, 143, 133, 34, 33, 32, 5] },
	{ "s": "GENERATED", "p": [144, 143, 140, 87, 136] },
	{ "s": "GENERATES", "p": [87, 5] },
	{ "s": "GENERATION", "p": [98] },
	{ "s": "GENERATOR", "p": [87] },
	{ "s": "GENERATORS", "p": [143] },
	{ "s": "GENERIC", "p": [139, 136, 87, 81] },
	{ "s": "GEOMETRY", "p": [90, 82, 95, 93] },
	{ "s": "GET", "p": [106, 14, 124, 90, 76, 53] },
	{ "s": "GHZ", "p": [8] },
	{ "s": "GITHUB", "p": [12] },
	{ "s": "GIVE", "p": [136, 93, 85] },
	{ "s": "GIVEN", "p": [90, 137, 121, 138, 136, 100, 98, 89, 81, 76, 73, 68, 34, 22, 21] },
	{ "s": "GIVES", "p": [137, 93, 92, 5] },
	{ "s": "GLANCE", "p": [5] },
	{ "s": "GLASS", "p": [86, 85, 84, 36] },
	{ "s": "GLASSES", "p": [96] },
	{ "s": "GLOBAL", "p": [139, 70] },
	{ "s": "GLOBALLY", "p": [70] },
	{ "s": "GLOSSARY", "p": [144] },
	{ "s": "GLUCOSE", "p": [87] },
	{ "s": "GO", "p": [145, 12, 84, 127, 117, 82, 81, 13, 11, 7] },
	{ "s": "GOAL", "p": [70] },
	{ "s": "GOALS", "p": [144, 73] },
	{ "s": "GOES", "p": [70] },
	{ "s": "GOING", "p": [70] },
	{ "s": "GOLD", "p": [11] },
	{ "s": "GOOD", "p": [121, 100, 93] },
	{ "s": "GOODS", "p": [70] },
	{ "s": "GOV", "p": [98] },
	{ "s": "GOVERNING", "p": [6] },
	{ "s": "GOVERNMENT", "p": [70, 6, 144, 98, 68] },
	{ "s": "GOVERNMENT-WIDE", "p": [70] },
	{ "s": "GOVERNMENTWIDE", "p": [70] },
	{ "s": "GPS", "p": [87] },
	{ "s": "GRADE", "p": [87] },
	{ "s": "GRANT", "p": [12] },
	{ "s": "GRAPH", "p": [34, 33, 127, 90, 87] },
	{ "s": "GRAPHIC", "p": [119, 93] },
	{ "s": "GRAPHICAL", "p": [136, 135] },
	{ "s": "GRAPHICALLY", "p": [77, 5] },
	{ "s": "GRAPHICS", "p": [93] },
	{ "s": "GRAPHS", "p": [127, 33, 34] },
	{ "s": "GRASS", "p": [146] },
	{ "s": "GRAY", "p": [145, 91, 86] },
	{ "s": "GRAYED", "p": [96, 90] },
	{ "s": "GREAT", "p": [127] },
	{ "s": "GREATER", "p": [81, 76, 145, 120, 119, 93] },
	{ "s": "GREATEST", "p": [136] },
	{ "s": "GREEN", "p": [100, 84, 82, 79, 12] },
	{ "s": "GRID", "p": [70, 95, 130, 129, 91, 144, 131, 67] },
	{ "s": "GRIDLINES", "p": [91] },
	{ "s": "GROSS", "p": [57] },
	{ "s": "GROUP", "p": [92, 95, 69, 70, 29, 28, 91, 86, 81] },
	{ "s": "GROUP/ZONE/MSC", "p": [92] },
	{ "s": "GROUPED", "p": [139, 125, 70, 126, 104, 92, 28, 5] },
	{ "s": "GROUPING", "p": [5] },
	{ "s": "GROUPINGS", "p": [70, 104, 145, 69] },
	{ "s": "GROUPS", "p": [100, 92, 69, 67] },
	{ "s": "GUARANTEEING", "p": [98] },
	{ "s": "GUARD", "p": [100] },
	{ "s": "GUARDING", "p": [144] },
	{ "s": "GUESSED", "p": [143] },
	{ "s": "GUEST", "p": [143] },
	{ "s": "GUIDANCE", "p": [70, 37, 5, 68, 67] },
	{ "s": "GUIDE", "p": [70, 41, 68, 145, 98, 91, 72, 12] },
	{ "s": "GUIDELINE", "p": [70, 67] },
	{ "s": "GUIDELINES", "p": [70, 144, 73, 67, 4, 98, 91, 84] },
	{ "s": "GUIDES", "p": [91, 70, 5, 4] },
	{ "s": "GUIDING", "p": [5] }
]