[
	{ "s": "5", "p": [70, 93, 146, 90, 144, 139, 137, 98, 81, 12] },
	{ "s": "5.0", "p": [146] },
	{ "s": "5.1", "p": [146] },
	{ "s": "5.71", "p": [70] },
	{ "s": "50", "p": [127, 130, 129] },
	{ "s": "500", "p": [67] },
	{ "s": "506", "p": [6] },
	{ "s": "508", "p": [146] },
	{ "s": "53", "p": [70, 144, 68, 60, 59, 146, 22] },
	{ "s": "53A", "p": [70] },
	{ "s": "54", "p": [70] },
	{ "s": "552A", "p": [144] },
	{ "s": "56840", "p": [12] },
	{ "s": "59", "p": [71] }
]