[
	{ "s": "Z", "p": [95] },
	{ "s": "ZERO", "p": [70] },
	{ "s": "ZIP", "p": [12] },
	{ "s": "ZONE", "p": [85, 81, 145, 139, 70, 92, 86, 131, 98, 95, 87] },
	{ "s": "ZONE/MSC", "p": [92] },
	{ "s": "ZONED", "p": [85] },
	{ "s": "ZONES", "p": [85, 98, 139, 81, 70, 146, 145, 91, 79, 96, 92, 86, 80] },
	{ "s": "ZONES/MSCS", "p": [92] },
	{ "s": "ZONING", "p": [82] },
	{ "s": "ZOOM", "p": [95, 91, 96, 89] },
	{ "s": "ZOOMING", "p": [91] }
]