[
	{ "s": "U", "p": [144, 70, 92, 95, 6] },
	{ "s": "U.S", "p": [70, 144] },
	{ "s": "U.S.C", "p": [6] },
	{ "s": "U/CMD", "p": [92] },
	{ "s": "ULTIMATE", "p": [70] },
	{ "s": "ULTRASOUND", "p": [87] },
	{ "s": "UNABLE", "p": [67] },
	{ "s": "UNANSWERED", "p": [137, 121, 128, 124, 123, 120, 115, 34] },
	{ "s": "UNAUTHORIZED", "p": [143, 144, 87, 70, 67] },
	{ "s": "UNAVAILABLE", "p": [144, 67] },
	{ "s": "UNCLASSIFIED", "p": [70, 144, 98] },
	{ "s": "UNCLICK", "p": [145] },
	{ "s": "UNCONNECTED", "p": [95] },
	{ "s": "UNDER", "p": [145, 83, 37, 12, 81, 32, 144, 91, 86, 85, 84, 82, 140, 139, 137, 130, 129, 111, 100, 95, 94, 93, 92, 90, 89, 73, 70, 67, 65, 28, 5] },
	{ "s": "UNDERLINE", "p": [93, 145, 95] },
	{ "s": "UNDERLYING", "p": [102, 73, 5] },
	{ "s": "UNDERNEATH", "p": [130, 129, 56, 50] },
	{ "s": "UNDERSTAND", "p": [37, 133, 100, 98, 76, 70, 69, 68, 35, 28, 5, 3] },
	{ "s": "UNDERSTANDING", "p": [100, 73, 70, 69] },
	{ "s": "UNDERSTANDS", "p": [73] },
	{ "s": "UNDERSTOOD", "p": [136, 135] },
	{ "s": "UNDESIRABLE", "p": [67] },
	{ "s": "UNDESIRED", "p": [67] },
	{ "s": "UNDETECTED", "p": [67] },
	{ "s": "UNDIRECTED", "p": [67] },
	{ "s": "UNDO", "p": [90, 96, 95, 79] },
	{ "s": "UNDO/REDO", "p": [96, 79] },
	{ "s": "UNDONE", "p": [90] },
	{ "s": "UNENCRYPTED", "p": [98] },
	{ "s": "UNESCORTED", "p": [70] },
	{ "s": "UNFORTUNATELY", "p": [145] },
	{ "s": "UNGROUP", "p": [92] },
	{ "s": "UNIDIRECTIONAL", "p": [98, 87] },
	{ "s": "UNIDIRECTIONALITY", "p": [98] },
	{ "s": "UNIFORM", "p": [144, 66, 65, 64, 63, 62, 61] },
	{ "s": "UNIFORMLY", "p": [87] },
	{ "s": "UNIMPORTANT", "p": [98] },
	{ "s": "UNINTERRUPTIBLE", "p": [87] },
	{ "s": "UNION", "p": [55] },
	{ "s": "UNIONS", "p": [70] },
	{ "s": "UNIQUE", "p": [81, 116, 117, 101, 93, 76, 146, 145, 140, 136, 135, 131, 98, 91, 90, 89, 86, 84, 37, 25, 5] },
	{ "s": "UNIQUELY", "p": [93] },
	{ "s": "UNIT", "p": [87, 144] },
	{ "s": "UNITED", "p": [6, 144, 70, 1] },
	{ "s": "UNITS", "p": [87, 98] },
	{ "s": "UNIVERSAL", "p": [76, 70, 145, 144, 138, 124, 111] },
	{ "s": "UNKNOWN", "p": [143, 87] },
	{ "s": "UNLESS", "p": [96, 81, 48, 20, 18] },
	{ "s": "UNLIKE", "p": [137, 124, 87, 76] },
	{ "s": "UNLOCK", "p": [23, 90, 95] },
	{ "s": "UNLOCKED", "p": [69, 23] },
	{ "s": "UNNECESSARY", "p": [37] },
	{ "s": "UNPROTECTED", "p": [98] },
	{ "s": "UNRELATED", "p": [70, 72] },
	{ "s": "UNRESTRICTED", "p": [143] },
	{ "s": "UNSECURED", "p": [143] },
	{ "s": "UNSURE", "p": [12] },
	{ "s": "UNTICKING", "p": [91] },
	{ "s": "UNTIL", "p": [96, 81, 145, 121, 84, 82, 37, 12, 5] },
	{ "s": "UNTITLED", "p": [91] },
	{ "s": "UNTRUSTED", "p": [98, 82, 143] },
	{ "s": "UNUSED", "p": [93] },
	{ "s": "UNWANTED", "p": [145, 85] },
	{ "s": "UP", "p": [12, 142, 56, 91, 70, 145, 137, 124, 105, 100, 95, 92, 90, 84, 76, 25, 10, 5] },
	{ "s": "UPDATE", "p": [87, 70, 69, 91, 68, 12, 8] },
	{ "s": "UPDATED", "p": [146, 70, 90, 73, 22] },
	{ "s": "UPDATES", "p": [70, 87, 68, 8] },
	{ "s": "UPGRADE", "p": [8] },
	{ "s": "UPGRADES", "p": [100] },
	{ "s": "UPGRADING", "p": [70] },
	{ "s": "UPLOAD", "p": [16, 30, 17] },
	{ "s": "UPLOADED", "p": [16] },
	{ "s": "UPON", "p": [70, 143, 81, 6] },
	{ "s": "UPPER", "p": [86] },
	{ "s": "UPWARDS", "p": [82] },
	{ "s": "URETHRAL", "p": [87] },
	{ "s": "URI", "p": [93] },
	{ "s": "URINARY", "p": [87] },
	{ "s": "URINE", "p": [87] },
	{ "s": "URIS", "p": [93] },
	{ "s": "URL", "p": [45, 12, 144, 93, 70, 13, 5] },
	{ "s": "URLS", "p": [93] },
	{ "s": "URODYNAMIC", "p": [87] },
	{ "s": "URODYNAMICS", "p": [87] },
	{ "s": "UROFLOW", "p": [87] },
	{ "s": "UROFLOWMETERS", "p": [87] },
	{ "s": "US", "p": [12, 84, 82, 70, 68] },
	{ "s": "USABILITY", "p": [146] },
	{ "s": "USAGE", "p": [87, 6] },
	{ "s": "USB", "p": [144, 8] },
	{ "s": "USE", "p": [70, 143, 25, 87, 90, 92, 81, 96, 44, 41, 12, 145, 98, 93, 146, 6, 144, 141, 89, 84, 82, 67, 45, 137, 133, 124, 115, 100, 95, 91, 86, 79, 76, 73, 72, 60, 55, 51, 50, 48, 39, 36, 21, 16, 13, 11, 5] },
	{ "s": "USED", "p": [87, 70, 93, 81, 100, 82, 90, 143, 137, 96, 91, 67, 36, 32, 144, 109, 92, 85, 73, 68, 64, 60, 5, 146, 142, 136, 133, 104, 98, 94, 86, 83, 79, 77, 75, 71, 59, 55, 39, 37, 25, 20, 12, 10, 6, 4] },
	{ "s": "USEFUL", "p": [91, 82, 81, 73, 70, 45, 13, 5] },
	{ "s": "USELESS", "p": [90] },
	{ "s": "USER", "p": [38, 12, 105, 143, 14, 5, 56, 113, 68, 59, 41, 39, 19, 10, 60, 36, 11, 100, 69, 25, 110, 55, 22, 145, 137, 136, 57, 4, 144, 121, 119, 115, 112, 109, 94, 81, 45, 26, 20, 134, 133, 127, 120, 114, 89, 78, 76, 35, 32, 28, 23, 21, 8, 1, 146, 142, 139, 126, 125, 106, 103, 102, 99, 98, 91, 87, 82, 80, 79, 77, 75, 72, 71, 54, 53, 52, 51, 50, 48, 37, 34, 29, 18, 16, 13, 3] },
	{ "s": "USER'S", "p": [38, 14, 11, 145, 119, 68, 60, 59, 41, 35, 22, 19, 18, 8, 5, 4] },
	{ "s": "USER-ENTERED", "p": [32] },
	{ "s": "USERNAME", "p": [143, 142] },
	{ "s": "USERS", "p": [14, 12, 87, 5, 144, 106, 57, 20, 8, 146, 145, 143, 121, 114, 103, 102, 90, 75, 74, 73, 67, 59, 56, 41, 40, 37, 25, 22, 13, 11, 4] },
	{ "s": "USER’S", "p": [12] },
	{ "s": "USES", "p": [87, 143, 118, 70, 137, 81, 75, 73, 72, 71, 68, 60, 59, 57, 32] },
	{ "s": "USING", "p": [70, 12, 91, 11, 143, 87, 81, 67, 5, 86, 41, 37, 145, 137, 117, 90, 77, 25, 13, 139, 121, 109, 102, 96, 93, 85, 84, 76, 73, 68, 65, 55, 38, 36, 32, 28, 21, 14, 8] },
	{ "s": "USUALLY", "p": [87, 137, 106, 84] },
	{ "s": "UTILITIES", "p": [64, 81] },
	{ "s": "UTILITY", "p": [81, 8] },
	{ "s": "UTILIZE", "p": [5, 28, 11] }
]